 ________________________________________________________________________
|                          |             |             |                 |
|       Binary             |    Octal    |   Decimal   |   Hexadecimal   |
|__________________________|_____________|_____________|_________________|
|                          |             |             |                 |
|        11011011          |     333     |     219     |       DB        |
|__________________________|_____________|_____________|_________________|
|                          |             |             |                 |
|        111111111         |     777     |     511     |       1FF       |
|__________________________|_____________|_____________|_________________|
|                          |             |             |                 |
|       1100001001         |     1411    |     777     |       309       |
|__________________________|_____________|_____________|_________________|
|                          |             |             |                 |
|       11101110111        |     3567    |     1991    |       777       |
|__________________________|_____________|_____________|_________________|
|                          |             |             |                 |
|      1110011100111       |    16347    |     7399    |       1CE7      |
|__________________________|_____________|_____________|_________________|
|                          |             |             |                 |
| 111110101100011010001000 |   76543210  |  16434824   |     FAC688      |
|__________________________|_____________|_____________|_________________|
|                          |             |             |                 |
|      1000000000000       |    10000    |    4096     |      1000       |
|__________________________|_____________|_____________|_________________|
|                          |             |             |                 |
| 111111111111111111100010 |  77777742   |  16777186   |     FFFFE2      |
|__________________________|_____________|_____________|_________________|
|                          |             |             |                 |
|          10000           |     20      |     16      |       10        |
|__________________________|_____________|_____________|_________________|
|                          |             |             |                 |
|    10000000000000000     |   200000    |    65536    |      10000      |
|__________________________|_____________|_____________|_________________|

