Question: What does the following program segment do?
for ( int i = 1; i <= 5; i++ )
{
    for ( int j = 1; j <= 3; j++ )
    {
        for ( int k = 1; k <= 4 ; k++ )
            cout << '*';
            cout << endl;
    } // end inner for
         cout << endl;
} // end outer for

Answer: 
The following program segment do this!!!!!

****
****
****

****
****
****

****
****
****

****
****
****

****
****
****
